{
  "version": "15.0.7",
  "vulnerabilities": [
    {
      "id": "9d7f8b8d4107312bded5502bcc164be00bac5f42564439fc748e3fdbff707e63",
      "name": "eval with argument of type Identifier",
      "description": "eval() used with a variable. This can lead to command injection.",
      "severity": "Critical",
      "location": {
        "file": "src/html/index.html",
        "start_line": 15
      },
      "cvss": [
        {
          "vendor": "GitLab",
          "vector_string": "CVSS:3.1/AV:N/AC:L/PR:N/UI:R/S:U/C:H/I:H/A:H"
        }
      ],
      "identifiers": [
        {
          "type": "eslint_rule_id",
          "name": "ESLint rule ID security/detect-eval-with-expression",
          "value": "security/detect-eval-with-expression",
          "url": "https://github.com/nodesecurity/eslint-plugin-security#detect-eval-with-expression"
        },
        {
          "type": "cwe",
          "name": "CWE-95",
          "value": "95",
          "url": "https://cwe.mitre.org/data/definitions/95.html"
        }
      ]
    },
    {
      "id": "0e96d321684f18ce18867178111d862576c3c1919ddf835df98d3c84a69a670e",
      "name": "Generic Object Injection Sink",
      "description": "Bracket object notation with user input is present, this might allow an attacker to access all properties of the object and even it's prototype, leading to possible code execution.",
      "severity": "Critical",
      "location": {
        "file": "src/html/index.html",
        "start_line": 30
      },
      "identifiers": [
        {
          "type": "eslint_rule_id",
          "name": "ESLint rule ID security/detect-object-injection",
          "value": "security/detect-object-injection",
          "url": "https://github.com/nodesecurity/eslint-plugin-security#detect-object-injection"
        },
        {
          "type": "cwe",
          "name": "CWE-94",
          "value": "94",
          "url": "https://cwe.mitre.org/data/definitions/94.html"
        }
      ]
    },
    {
      "id": "3eeb6c529251b2ffda042058a6d08263ad9f75b7eaba921bfd43433d08b2c59e",
      "name": "eval with argument of type Identifier",
      "description": "eval() used with a variable. This can lead to command injection.",
      "severity": "Critical",
      "location": {
        "file": "src/js/main.js",
        "start_line": 10
      },
      "identifiers": [
        {
          "type": "eslint_rule_id",
          "name": "ESLint rule ID security/detect-eval-with-expression",
          "value": "security/detect-eval-with-expression",
          "url": "https://github.com/nodesecurity/eslint-plugin-security#detect-eval-with-expression"
        },
        {
          "type": "cwe",
          "name": "CWE-95",
          "value": "95",
          "url": "https://cwe.mitre.org/data/definitions/95.html"
        }
      ]
    },
    {
      "id": "3288f017261cfef05a50e0e895d222560976fec00b992c07a153d48ff7f4512b",
      "name": "Generic Object Injection Sink",
      "description": "Bracket object notation with user input is present, this might allow an attacker to access all properties of the object and even it's prototype, leading to possible code execution.",
      "severity": "Critical",
      "location": {
        "file": "src/js/main.js",
        "start_line": 28
      },
      "identifiers": [
        {
          "type": "eslint_rule_id",
          "name": "ESLint rule ID security/detect-object-injection",
          "value": "security/detect-object-injection",
          "url": "https://github.com/nodesecurity/eslint-plugin-security#detect-object-injection"
        },
        {
          "type": "cwe",
          "name": "CWE-94",
          "value": "94",
          "url": "https://cwe.mitre.org/data/definitions/94.html"
        }
      ]
    },
    {
      "id": "307549fe73cd19babeb51982b0fc3900839d4952049f6fe27813b3bc53c4e792",
      "name": "Unsafe Regular Expression",
      "description": "Potentially unsafe regular expressions. It may take a very long time to run.",
      "severity": "High",
      "location": {
        "file": "src/html/index.html",
        "start_line": 8
      },
      "identifiers": [
        {
          "type": "eslint_rule_id",
          "name": "ESLint rule ID security/detect-unsafe-regex",
          "value": "security/detect-unsafe-regex",
          "url": "https://github.com/nodesecurity/eslint-plugin-security#detect-unsafe-regex"
        },
        {
          "type": "cwe",
          "name": "CWE-400",
          "value": "400",
          "url": "https://cwe.mitre.org/data/definitions/400.html"
        }
      ]
    },
    {
      "id": "5b2831d3f30f328a922d4967ef3e9de6e47e240a90c063932c748c67ef8f1180",
      "name": "Found non-literal argument to RegExp Constructor",
      "description": "RegExp() called with a variable, this might allow an attacker to DOS your application with a long-running regular expression.",
      "severity": "Medium",
      "location": {
        "file": "src/html/index.html",
        "start_line": 19
      },
      "identifiers": [
        {
          "type": "eslint_rule_id",
          "name": "ESLint rule ID security/detect-non-literal-regexp",
          "value": "security/detect-non-literal-regexp",
          "url": "https://github.com/nodesecurity/eslint-plugin-security#detect-non-literal-regexp"
        },
        {
          "type": "cwe",
          "name": "CWE-185",
          "value": "185",
          "url": "https://cwe.mitre.org/data/definitions/185.html"
        }
      ]
    },
    {
      "id": "47cc1419c18db2d022d6de2d05fe9c8803a2506b6d79c7837c6000f331c24ff0",
      "name": "Found non-literal argument to RegExp Constructor",
      "description": "RegExp() called with a variable, this might allow an attacker to DOS your application with a long-running regular expression.",
      "severity": "Medium",
      "location": {
        "file": "src/js/main.js",
        "start_line": 16
      },
      "identifiers": [
        {
          "type": "eslint_rule_id",
          "name": "ESLint rule ID security/detect-non-literal-regexp",
          "value": "security/detect-non-literal-regexp",
          "url": "https://github.com/nodesecurity/eslint-plugin-security#detect-non-literal-regexp"
        },
        {
          "type": "cwe",
          "name": "CWE-185",
          "value": "185",
          "url": "https://cwe.mitre.org/data/definitions/185.html"
        }
      ]
    },
    {
      "id": "d8b5a486a5301d67eae7607165b77305eccbb4a86a024ad461b2a6ec4c4b1dd7",
      "name": "Potential timing attack, right side: true",
      "description": "Insecure comparisons (==, !=, !== and ===), which check input sequentially. This could lead to timing attacks on your application.",
      "severity": "Low",
      "location": {
        "file": "src/html/index.html",
        "start_line": 52,
        "end_line": 54
      },
      "identifiers": [
        {
          "type": "eslint_rule_id",
          "name": "ESLint rule ID security/detect-possible-timing-attacks",
          "value": "security/detect-possible-timing-attacks",
          "url": "https://github.com/nodesecurity/eslint-plugin-security#detect-possible-timing-attacks"
        },
        {
          "type": "cwe",
          "name": "CWE-208",
          "value": "208",
          "url": "https://cwe.mitre.org/data/definitions/208.html"
        }
      ]
    },
    {
      "id": "6aa93b48d7978ed2e61289c2c7641214cadd6a1b3d8256110ecd0cdbabbd23fd",
      "name": "Potential timing attack, right side: true",
      "description": "Insecure comparisons (==, !=, !== and ===), which check input sequentially. This could lead to timing attacks on your application.",
      "severity": "Low",
      "location": {
        "file": "src/js/main.js",
        "start_line": 50,
        "end_line": 52
      },
      "identifiers": [
        {
          "type": "eslint_rule_id",
          "name": "ESLint rule ID security/detect-possible-timing-attacks",
          "value": "security/detect-possible-timing-attacks",
          "url": "https://github.com/nodesecurity/eslint-plugin-security#detect-possible-timing-attacks"
        },
        {
          "type": "cwe",
          "name": "CWE-208",
          "value": "208",
          "url": "https://cwe.mitre.org/data/definitions/208.html"
        }
      ]
    }
  ],
  "scan": {
    "analyzer": {
      "id": "eslint",
      "name": "ESLint",
      "url": "https://github.com/nodesecurity/eslint-plugin-security",
      "vendor": {
        "name": "GitLab"
      },
      "version": "7.25.0"
    },
    "scanner": {
      "id": "eslint",
      "name": "ESLint",
      "url": "https://github.com/nodesecurity/eslint-plugin-security",
      "vendor": {
        "name": "GitLab"
      },
      "version": "7.25.0"
    },
    "type": "sast",
    "start_time": "2021-05-13T22:27:00",
    "end_time": "2021-05-13T22:27:01",
    "status": "success"
  }
}
